<svg width="32" height="33" viewBox="0 0 32 33" fill="none" xmlns="http://www.w3.org/2000/svg">
<rect y="0.5" width="32" height="32" rx="10" fill="#07A465" fill-opacity="0.1"/>
<path d="M8 10.5H24M8 16.5H24M8 22.5H24" stroke="#3B6D66" stroke-linecap="round" stroke-linejoin="round"/>
</svg>
